…
``` r
gompertz_table4 <- gompertz_table4 %>% 
  pivot_longer(mse_exp:bias_cox, values_to = "performance", names_to = "method") %>% separate_wider_delim(method, "_", names = c("method", "model")) %>%
  pivot_wider(names_from = method, values_from = performance)
gompertz_table4
```

    ## # A tibble: 21 × 5
    ##        N model      mse     var     bias
    ##    <dbl> <chr>    <dbl>   <dbl>    <dbl>
    ##  1   100 exp     0.577  0.0198  -0.747  
    ##  2   100 weibull 0.121  0.0593  -0.248  
    ##  3   100 cox     0.0935 0.0928   0.0270 
    ##  4   150 exp     0.579  0.0113  -0.754  
    ##  5   150 weibull 0.103  0.0354  -0.261  
    ##  6   150 cox     0.0514 0.0513   0.0142 
    ##  7   200 exp     0.582  0.00916 -0.757  
    ##  8   200 weibull 0.0985 0.0262  -0.269  
    ##  9   200 cox     0.0396 0.0396   0.00323
    ## 10   250 exp     0.562  0.00739 -0.745  
    ## # … with 11 more rows
…
``` r
exponential_table <- exponential_table %>% 
  pivot_longer(mse_exp:bias_cox, values_to = "performance", names_to = "method") %>% separate_wider_delim(method, "_", names = c("method", "model")) %>%
  pivot_wider(names_from = method, values_from = performance)
exponential_table
```

    ## # A tibble: 21 × 5
    ##        N model      mse    var      bias
    ##    <dbl> <chr>    <dbl>  <dbl>     <dbl>
    ##  1   100 exp     0.0460 0.0461 -0.000796
    ##  2   100 weibull 0.0736 0.0724  0.0365  
    ##  3   100 cox     0.0935 0.0928  0.0270  
    ##  4   150 exp     0.0273 0.0273 -0.00502 
    ##  5   150 weibull 0.0431 0.0427  0.0210  
    ##  6   150 cox     0.0514 0.0513  0.0142  
    ##  7   200 exp     0.0209 0.0208 -0.0114  
    ##  8   200 weibull 0.0319 0.0318  0.0109  
    ##  9   200 cox     0.0396 0.0396  0.00323 
    ## 10   250 exp     0.0171 0.0171  0.00532 
    ## # … with 11 more rows
…
  )
weibull_table4 <- weibull_table4 %>% 
  pivot_longer(mse_exp:bias_cox, values_to = "performance", names_to = "method") %>% separate_wider_delim(method, "_", names = c("method", "model")) %>%
  pivot_wider(names_from = method, values_from = performance)
weibull_table4
```

    ## # A tibble: 21 × 5
    ##        N model      mse     var     bias
    ##    <dbl> <chr>    <dbl>   <dbl>    <dbl>
    ##  1   100 exp     1.01   0.0121  -1.00   
    ##  2   100 weibull 0.0739 0.0727   0.0365 
    ##  3   100 cox     0.0935 0.0928   0.0270 
    ##  4   150 exp     1.02   0.00687 -1.00   
    ##  5   150 weibull 0.0432 0.0428   0.0209 
    ##  6   150 cox     0.0514 0.0513   0.0142 
    ##  7   200 exp     1.02   0.00553 -1.01   
    ##  8   200 weibull 0.0319 0.0318   0.0110 
    ##  9   200 cox     0.0396 0.0396   0.00323
    ## 10   250 exp     1.00   0.00448 -0.998  
    ## # … with 11 more rows
…
